{
  "NastyDB": {
    "host": "localhost",
    "port": 3306,
    "url": "mysql://root:0000@localhost:3306/autoevaluacion",
    "database": "autoevaluacion",
    "password": "0000",
    "name": "NastyDB",
    "user": "root",
    "connector": "mysql"
  },
  "db": {
    "name": "db",
    "connector": "memory"
  }
}
